{
  "sites": [
//自用，侵删
    {
      "key":"js豆瓣",
      "name":"🍀XWTV,更新时间:2022/11/29",
      "type":3,
      "api":"https://agit.ai/zzty/jklj/raw/branch/master/js/yingmo.js",
      "ext":"https://agit.ai/zzty/jklj/raw/branch/master/js/douban.js",
      "searchable": 0,
      "quickSearch": 0,
      "filterable": 0
      },
   {
      "key": "csp_XYQ_lu1",
      "name": "️🖥️电视直播",
      "type": 3,
      "api": "csp_XYQHiker",
      "searchable": 1,
      "quickSearch": 1,
      "filterable": 0,
      "ext": "https://agit.ai/zzty/jklj/raw/branch/master/json/ningmeng.json"
    },
    {
      "key": "csp_Kunyu77",
      "name": "🍁多多七七",
      "type": 3,
      "api": "csp_Kunyu77",
      "searchable": 1,
      "quickSearch": 1,
      "filterable": 1
    },
    //{
    //  "key":"csp_AppTT",
    //  "name":"🗺️图图影视",
    //  "type":3,
    //  "api":"csp_AppTT",
    //  "playerType":2,
    //  "searchable":1,
    //  "quickSearch":1,
    //  "filterable":1,
    //  "ext":"http://110.42.6.212:7788"
    //  },
    {
      "key": "drpy_js_看视界",
      "name": "🎉看视界🎉",
      "type": 3,
      "api": "https://agit.ai/zzty/jklj/raw/branch/master/js/yingmo.js",
      "ext": "https://agit.ai/zzty/jklj/raw/branch/master/js/ksj.js"
    },
    {
      "key": "csp_Nkdy",
      "name": "🎨南柯电影",
      "type": 3,
      "api": "csp_Nkdy",
      "searchable": 1,
      "quickSearch": 1,
      "filterable": 1
    },
    {
      "key": "Lezhu_spider",
      "name": "🐷乐猪影视",
      "type": 3,
      "api": "csp_Lezhu",
      "searchable": 1,
      "quickSearch": 1,
      "filterable": 1
    },
    {
      "key": "小苹果",
      "name": "🍏小苹果",
      "type": 3,
      "api": "csp_LiteApple",
      "searchable": 1,
      "quickSearch": 1,
      "filterable": 1
    },
    {
      "key": "360_spider",
      "name": "🌈360影视",
      "type": 3,
      "api": "csp_SP360",
      "searchable": 1,
      "quickSearch": 1,
      "filterable": 1
    },
    {
      "key":"csp_biubiu_鸭奈飞",
      "name":"🦆鸭奈飞",
      "type":3,
      "api":"csp_XBiubiu",
      "searchable":1,
      "quickSearch":1,"ext":"https://agit.ai/zzty/jklj/raw/branch/master/json/naifei.json"
      },
      {"key":"csp_Lgyy","name":"🌀voflix","type":3,"api":"csp_Lgyy","searchable":1,"quickSearch":1,"filterable":1},
   {
      "key": "csp_Nmys",
      "name": "👨‍🌾农民影视",
      "type": 3,
      "api": "csp_Nmys",
      "searchable": 1,
      "quickSearch": 1,
      "filterable": 1,
      "ext": "https://agit.ai/zzty/jklj/raw/branch/master/json/Nmys.json"
    },
    {
      "key": "csp_xpath_独播库",
      "name": "🐲独播库",
      "type": 3,
      "api": "csp_XPathMacFilter",
      "searchable": 1,
      "quickSearch": 1,
      "filterable": 1,
      "ext": "https://agit.ai/zzty/jklj/raw/branch/master/json/duboku.json"
    },
    {
      "key": "XMM",
      "name": "😻小猫咪",
      "type": 1,
      "api": "https://zy.xiaomaomi.cc/api.php/provide/vod/",
      "searchable": 1,
      "quickSearch": 1,
      "filterable": 1,
      "categories": ["国产剧", "日韩剧", "港台剧", "欧美剧", "综艺", "动漫", "动作片", "科幻片", "战争片", "喜剧片", "爱情片", "恐怖片", "剧情片"]
    }, 
    {
      "key": "Kuaikan",
      "name": "🦋快看影视",
      "type": 3,
      "api": "csp_Kuaikan",
      "searchable": 1,
      "quickSearch": 1,
      "filterable": 1
    },
    {
      "key": "csp_xpath_789kp",
      "name": "🎗️数字影院",
      "type": 3,
      "api": "csp_XPathMacFilter",
      "searchable": 1,
      "quickSearch": 1,
      "filterable": 1,
      "ext": "https://agit.ai/zzty/jklj/raw/branch/master/json/789ba.json"
    },
    {
      "key": "py_cctv",
      "name": "❤️爱央视PY",
      "type": 3,
      "api": "py_cctv",
      "searchable": 0,
      "quickSearch": 0,
      "filterable": 1,
      "ext": "https://agit.ai/zzty/jklj/raw/branch/master/json/cctv.py"
    },
    {
      "key": "csp_xBPQ_真不卡",
      "name": "🚀真不卡XB",
      "type": 3,
      "api": "csp_xBPQ",
      "searchable": 1,
      "quickSearch": 1,
      "filterable": 1,
      "ext": "https://agit.ai/zzty/jklj/raw/branch/master/json/真不卡.json"
    },
    {
      "key": "搭讪",
      "name": "💋多多搭讪",
      "type": 3,
      "api": "csp_Bili",
      "searchable": 0,
      "quickSearch": 0,
      "filterable": 1,
      "ext":"https://agit.ai/zzty/jklj/raw/branch/master/json/dashan.json"
    },
    {
      "key": "搭配",
      "name": "💃多多搭配",
      "type": 3,
      "api": "csp_Bili",
      "searchable": 0,
      "quickSearch": 0,
      "filterable": 1,
      "ext": "https://agit.ai/zzty/jklj/raw/branch/master/json/duodapei.json"
    },
    {
      "key": "csp_XBPQ极品影视",
      "name": "🌻极品影视",
      "type": 3,
      "api": "csp_xBPQ",
      "searchable": 1,
      "quickSearch": 1,
      "filterable": 1,
      "ext": "https://agit.ai/zzty/jklj/raw/branch/master/json/极品影视.json"
    },
    {
      "key": "py_czspp",
      "name": "🏘️厂长(PY)",
      "type": 3,
      "api": "py_czspp",
      "searchable": 1,
      "quickSearch": 1,
      "filterable": 1,
      "ext": "https://agit.ai/zzty/jklj/raw/branch/master/json/czspp2.py"
    },
    {
      "key":"csp_CZSPP",
      "name":"🏭️厂长(SP)",
      "type":3,
      "api":"csp_Czsapp",
      "searchable":1,
      "quickSearch":1,
      "filterable":1,
      "jar":"https://agit.ai/zzty/jklj/raw/branch/master/jar/czjar.zip"
    },
    {
     "key":"csp_DiDuan",
     "name":"🐞低端影视",
     "type":3,
     "api":"csp_Ddrk",
     "click":"ddys.tv;#vjsp > button",
     "searchable":1,
     "quickSearch":1,
     "filterable":0
    },
    {
      "key": "csp_剧荒",
      "name": "⛱️剧荒TV",
      "type": 3,
      "api": "csp_Juhuang",
      "searchable": 1,
      "quickSearch": 1,
      "filterable": 1
    },
    {
      "key": "追剧喵",
      "name": "😻追剧喵",
      "type": 3,
      "api": "csp_ZJMiao",
      "searchable": 1,
      "quickSearch": 1,
      "filterable": 1
    },
    {
      "key": "csp_Ysgc",
      "name": "🎬️影视工厂",
      "type": 3,
      "api": "csp_Ysgc",
      "searchable": 1,
      "quickSearch": 1,
      "filterable": 1
    },
    {
      "key": "csp_Zxzj",
      "name": "🏠在线之家",
      "type": 3,
      "api": "csp_Zxzj",
      "searchable": 1,
      "quickSearch": 1,
      "filterable": 1
    },
    {
      "key": "SPQQ",
      "name": "🐧腾讯(官)",
      "type": 3,
      "api": "csp_QQ",
      "searchable": 1,
      "quickSearch": 1,
      "filterable": 1
    },
    {
      "key": "SPIQY",
      "name": "🥝爱奇艺(官)",
      "type": 3,
      "api": "csp_IQIYI",
      "searchable": 1,
      "quickSearch": 1,
      "filterable": 1
    },
    {
      "key": "MGT",
      "name": "🥭芒果(官)",
      "type": 3,
      "api": "csp_Mgtv",
      "searchable": 1,
      "quickSearch": 1,
      "filterable": 1
    },
    {
      "key": "youku",
      "name": "👑优酷(官)",
      "type": 0,
      "api": "https://www.zycaiji.net:7788/api.php/provide/vod/from/youku/at/xml/",
      "searchable": 0,
      "quickSearch": 0,
      "filterable": 0,
      "categories": [
        "综艺",
        "动漫",
        "动作片",
        "喜剧片",
        "爱情片",
        "科幻片",
        "恐怖片",
        "剧情片",
        "战争片",
        "国产剧",
        "港台剧",
        "日韩剧",
        "欧美剧",
        "惊悚片",
        "犯罪片",
        "冒险片",
        "悬疑片",
        "动画片",
        "武侠片",
        "奇幻片",
        "少儿",
        "其他片"
      ]
    },
    {
      "key": "csp_biubiu_骚火电影",
      "name": "🔥骚火电影",
      "type": 3,
      "api": "csp_XBiubiu",
      "searchable": 1,
      "quickSearch": 1,
      "filterable": 1,
      "ext": "https://agit.ai/zzty/jklj/raw/branch/master/json/%E9%AA%9A%E7%81%AB%E7%94%B5%E5%BD%B1.json"
    },
    {
		"key": "py_libvio",
		"name": "🍲LIB(PY)",
		"type": 3,
		"api": "py_libvio",
		"searchable": 0,
		"quickSearch": 0,
		"filterable": 1,
		"ext": "https://agit.ai/zzty/jklj/raw/branch/master/json/pylibvio.py"
	},
    {
      "key": "csp_xb_lib",
      "name": "🍲LIB(XB)",
      "type": 3,
      "api": "csp_XBiu",
      "searchable": 1,
      "quickSearch": 1,
      "filterable": 0,
      "ext": " https://www.libvio.me/type/{cateId}-{catePg}.html"
    },
    {
      "key":"csp_Smdyy",
      "name": "🐴神马影院",
      "type": 3,
      "api": "csp_Smdyy",
      "searchable": 1,
      "quickSearch": 1,
      "filterable": 1
    },
    {
      "key":"csp_Bd",
      "name":"💥哔嘀SP",
      "type":3,
      "api":"csp_Bdys01",
      "searchable":1,
      "quickSearch":1,
      "filterable":1
      },
   {
      "key": "bdys",
      "name": "📯哔嘀影视",
      "type": 3,
      "api": "csp_XPbd",
      "searchable": 1,
      "quickSearch": 1,
      "filterable": 1,
      "ext":"https://agit.ai/zzty/jklj/raw/branch/master/json/bdys.json"
    },
    {
      "key": "csp_biubiu_剧白白-蓝光",
      "name": "🥒剧白白(XB)",
      "type": 3,
      "api": "csp_XBiubiu",
      "searchable": 1,
      "quickSearch": 1,
      "filterable": 0,
      "ext": "https://agit.ai/zzty/jklj/raw/branch/master/json/剧白白-蓝光.json"
    },
    {
      "key":"csp_Dy1010",
      "name":"❤️双十电影",
      "type":3,
      "api":"csp_Dy1010",
      "searchable":1,
      "quickSearch":1,
      "filterable":1
      },
    {
      "key": "mjxq_spider",
      "name": "🌏美剧星球",
      "type": 3,
      "api": "csp_Mjxq",
      "searchable": 1,
      "quickSearch": 1,
      "filterable": 1
    },
    {
      "key": "小熊",
      "name": "🐨小熊TV",
      "type": 3,
      "api": "csp_Xxys",
      "searchable": 1,
      "quickSearch": 1,
      "filterable": 1
    },
    {
      "key": "csp_Cokemv",
      "name": "🎀Cokemv",
      "type": 3,
      "api": "csp_Cokemv",
      "searchable": 1,
      "quickSearch": 1,
      "filterable": 1
    },
    {
      "key": "csp_Auete",
      "name": "🐼Auete",
      "type": 3,
      "api": "csp_Auete",
      "searchable": 1,
      "quickSearch": 1,
      "filterable": 1
    },
    {
      "key": "csp_Bttoo",
      "name": "✌两个BT",
      "type": 3,
      "api": "csp_Bttoo",
      "searchable": 1,
      "quickSearch": 1,
      "filterable": 1
    },
    {
      "key": "3EDY",
      "name": "🌴3EDY",
      "type": 3,
      "api": "csp_EEEDY",
      "searchable": 1,
      "quickSearch": 1,
      "filterable": 0
    },
     {
      "key": "csp_biubiu_voflix",
      "name": "🌀voflix(XB)",
      "type": 3,
      "api": "csp_XBiubiu",
      "searchable": 1,
      "quickSearch": 1,
      "filterable": 1,
      "ext": "https://agit.ai/zzty/jklj/raw/branch/master/json/voflix.json"
    },
    {
      "key": "csp_Anime1",
      "name": "🌸动漫系列",
      "type": 3,
      "api": "csp_Anime1",
      "searchable": 1,
      "quickSearch": 1,
      "filterable": 0
    },
    {
      "key": "csp_biubiu_ting",
      "name": "📚️听书网",
      "type": 3,
      "api": "csp_XBiubiu",
      "searchable": 1,
      "quickSearch": 1,
      "filterable": 0,
      "ext": "https://agit.ai/zzty/jklj/raw/branch/master/json/tingshu.json"
    },
    {
      "key":"csp_XPath_鹅直播",
      "name":"⚽企鹅直播",
      "type":3,
      "api":"csp_XPath3",
      "searchable":0,
      "quickSearch":0,
      "filterable":0,
      "ext":"./json/qie.json"
      },
    {
      "key": "17kan",
      "name": "🏀17看球",
      "type": 3,
      "api": "csp_XYQBiu",
      "searchable": 0,
      "quickSearch": 0,
      "filterable": 0,
      "ext": "https://agit.ai/zzty/jklj/raw/branch/master/json/17%E7%9C%8B%E7%90%83.json"
    },
    {
      "key": "dr_88看球",
      "name": "⚽88看球",
      "type": 3,
      "api": "https://agit.ai/zzty/jklj/raw/branch/master/js/drpymin.js",
      "searchable": 0,
      "quickSearch": 0,
      "filterable": 0,
      "ext": "https://agit.ai/zzty/jklj/raw/branch/master/js/88%E7%9C%8B%E7%90%83.js"
    },
    {
      "key": "csp_XYQBiu_310直播",
      "name": "🏀310直播",
      "type": 3,
      "api": "csp_XYQBiu",
      "searchable": 0,
      "quickSearch": 0,
      "filterable": 0,
      "ext": "https://agit.ai/zzty/jklj/raw/branch/master/json/310%E7%9B%B4%E6%92%AD.json"
    },
    {
      "key": "JRS看球网",
      "name": "⚽JRS看球",
      "type": 3,
      "api": "csp_XPath",
      "searchable": 0,
      "quickSearch": 0,
      "filterable": 0,
      "ext": "https://agit.ai/zzty/jklj/raw/branch/master/json/JRS%E7%9C%8B%E7%90%83%E7%BD%91.json"
    },
    {
      "key": "dr_JRKAN直播",
      "name": "🏀JRK直播",
      "type": 3,
      "api": "https://agit.ai/zzty/jklj/raw/branch/master/js/drpymin.js",
      "searchable": 0,
      "quickSearch": 0,
      "filterable": 0,
      "ext": "https://agit.ai/zzty/jklj/raw/branch/master/js/JRKAN.js"
    },
    {
      "key": "csp_xBPQ_抓饭体育",
      "name": "️⚽抓饭体育",
      "type": 3,
      "api": "csp_xBPQ",
      "searchable": 1,
      "quickSearch": 1,
      "filterable": 0,
      "ext": "{\"分类url\":\"https://www.zhuafan.tech/sports-home/category/{cateId}\",\"分类\":\"全部$/all#足球$Football#篮球$Basketball#羽乒$Badminton#台球$Billiards#棒球$Baseball#户外$Outdoors#搏击$Wrestling#综合$Others#棋盘$Boardgame#电竞$Popular#网球$Tennis#排球$Volleyball#聊天$Chat#原声$Acoustic\",\"热门推荐\":\"1\",\"起始页\":\"1\",\"直接播放\":\"1\",\"数组\":\"{&&}\",\"图片\":\"imageUrl\\\":\\\"&&\\\"\",\"标题\":\"cname\\\":\\\"&&\\\"\",\"链接\":\"id\\\":\\\"&&\\\"\",\"链接前缀\":\"https://www.zhuafan.tech/\"}"
    },
    {
      "key": "csp_Bili",
      "name": "🅱️哔哩合集",
      "type": 3,
      "api": "csp_Bili",
      "playerType":2,
      "searchable": 1,
      "quickSearch": 0,
      "filterable": 0,
      "ext": "https://agit.ai/zzty/jklj/raw/branch/master/Bili/bili.json"
    },
    {
      "key":"csp_Biliych",
      "name":"🅱️看演唱会",
      "type": 3,
      "api": "csp_Bili",
      "playerType":2,
      "searchable": 1,
      "quickSearch": 0,
      "filterable": 1,
      "ext":"https://agit.ai/zzty/jklj/raw/branch/master/Bili/演唱会.json"
    }, 
    	{
            "key" : "py_youer",
            "name" : "🅱️幼儿教育",
            "type" : 3,
            "api" : "py_youer",
            "searchable" : 1,
            "quickSearch" : 1,
            "filterable" : 1,
            "ext" : "https://agit.ai/zzty/jklj/raw/branch/master/Bili/youer.py"
        }, 
        {
            "key" : "py_xiaoxue",
            "name" : "🅱️小学教育",
            "type" : 3,
            "api" : "py_xiaoxue",
            "searchable" : 1,
            "quickSearch" : 1,
            "filterable" : 1,
            "ext" : "https://agit.ai/zzty/jklj/raw/branch/master/Bili/xiaoxue.py"
        }, {
            "key" : "py_czxx",
            "name" : "🅱️初中教育",
            "type" : 3,
            "api" : "py_czxx",
            "searchable" : 1,
            "quickSearch" : 1,
            "filterable" : 1,
            "ext" : "https://agit.ai/zzty/jklj/raw/branch/master/Bili/chuzhong.py"
        }, {
            "key" : "py_gaozxx",
            "name" : "🅱️高中教育",
            "type" : 3,
            "api" : "py_gaozxx",
            "searchable" : 1,
            "quickSearch" : 1,
            "filterable" : 1,
            "ext" : "https://agit.ai/zzty/jklj/raw/branch/master/Bili/gaozhong.py"
        }, {
            "key" : "py_xuqu1",
            "name" : "🅱️戏曲合集",
            "type" : 3,
            "api" : "py_xuqu1",
            "searchable" : 1,
            "quickSearch" : 1,
            "filterable" : 1,
            "ext" : "https://agit.ai/zzty/jklj/raw/branch/master/Bili/xiqu.py"
        }, {
            "key" : "py_TYjs",
            "name" : "🅱️体育健身",
            "type" : 3,
            "api" : "py_TYjs",
            "searchable" : 1,
            "quickSearch" : 1,
            "filterable" : 1,
            "ext" : "https://agit.ai/zzty/jklj/raw/branch/master/Bili/tiyu.py"
        }, {
            "key" : "py_xiangsh",
            "name" : "🅱️相声小品",
            "type" : 3,
            "api" : "py_xiangsh",
            "searchable" : 1,
            "quickSearch" : 1,
            "filterable" : 1,
            "ext" : "https://agit.ai/zzty/jklj/raw/branch/master/Bili/xiaopin.py"
        }, {
            "key" : "py_FBqx",
            "name" : "🅱️球队球星",
            "type" : 3,
            "api" : "py_FBqx",
            "searchable" : 1,
            "quickSearch" : 1,
            "filterable" : 1,
            "ext" : "https://agit.ai/zzty/jklj/raw/branch/master/Bili/qiudui.py"
        },  {
            "key" : "py_Meinvw",
            "name" : "🅱️美女热舞",
            "type" : 3,
            "api" : "py_Meinvw",
            "searchable" : 1,
            "quickSearch" : 1,
            "filterable" : 1,
            "ext" : "https://agit.ai/zzty/jklj/raw/branch/master/Bili/meinv.py"
        }, {
            "key" : "py_yanchh",
            "name" : "🅱️歌手合集",
            "type" : 3,
            "api" : "py_yanchh",
            "searchable" : 1,
            "quickSearch" : 1,
            "filterable" : 1,
            "ext" : "https://agit.ai/zzty/jklj/raw/branch/master/Bili/geshou.py"
        }, {
            "key" : "py_Nvtuan",
            "name" : "🅱️女团热舞",
            "type" : 3,
            "api" : "py_Nvtuan",
            "searchable" : 1,
            "quickSearch" : 1,
            "filterable" : 1,
            "ext" : "https://agit.ai/zzty/jklj/raw/branch/master/Bili/nvtuan.py"
        }, {
            "key" : "py_MTV",
            "name" : "🅱️歌曲MTV",
            "type" : 3,
            "api" : "py_MTV",
            "searchable" : 1,
            "quickSearch" : 1,
            "filterable" : 1,
            "ext" : "https://agit.ai/zzty/jklj/raw/branch/master/Bili/mtv.py"
        }, {
            "key" : "py_Yinl2",
            "name" : "🅱️音乐合集",
            "type" : 3,
            "api" : "py_Yinl2",
            "searchable" : 1,
            "quickSearch" : 1,
            "filterable" : 1,
            "ext" : "https://agit.ai/zzty/jklj/raw/branch/master/Bili/yinyue.py"
        }, 
        {
            "key" : "py_Bzjc",
            "name" : "🅱️软件教程",
            "type" : 3,
            "api" : "py_Bzjc",
            "searchable" : 1,
            "quickSearch" : 1,
            "filterable" : 1,
            "ext" : "https://agit.ai/zzty/jklj/raw/branch/master/Bili/ruanjian.py"
        }, 
       {
      "key": "美食",
      "name": "🅱️美食合集",
      "type": 3,
      "api": "csp_Bili",
      "searchable": 0,
      "quickSearch": 0,
      "filterable": 1,
      "ext": "https://agit.ai/zzty/jklj/raw/branch/master/Bili/%E7%BE%8E%E9%A3%9F%E5%90%88%E9%9B%86.json"
    },

    {
      "key": "短视频聚合",
      "name": "📱短视频聚合",
      "type": 3,
      "api": "csp_XYQBiu",
      "searchable": 0,
      "quickSearch": 0,
      "filterable": 0,
      "ext": "https://agit.ai/zzty/jklj/raw/branch/master/json/%E7%9F%AD%E8%A7%86%E9%A2%91%E8%81%9A%E5%90%88.json"
    },
    {
      "key": "csp_Yj1211",
      "name": "📸直播合集",
      "type": 3,
      "api": "csp_Yj1211",
      "searchable": 1,
      "quickSearch": 1,
      "filterable": 0,
      "jar":"https://agit.ai/zzty/jklj/raw/branch/master/jar/czzy1123.jar;md5;e3f1a10099611223738e86beb3e859c1"
    },
    {
		"key": "py_huya",
		"name": "🐯虎牙(PY)",
		"type": 3,
		"api": "py_huya",
		"searchable": 0,
		"quickSearch": 0,
		"filterable": 1,
		"ext": "https://agit.ai/zzty/jklj/raw/branch/master/json/pyhuya.py"
	},
  {
    "key":"csp_XYQBiu_虎牙直播",
    "name":"🐯虎牙直播",
    "type":3,
    "api":"XYQBiu",
    "searchable":0,
    "quickSearch":0,
    "filterable":0,
    "ext":"https://agit.ai/zzty/jklj/raw/branch/master/json/%E8%99%8E%E7%89%99.json"
    },
 {
		"key": "py_douyu",
		"name": "🦈斗鱼(PY)",
		"type": 3,
		"api": "py_douyu",
		"searchable": 0,
		"quickSearch": 0,
		"filterable": 1,
		"ext": "https://agit.ai/zzty/jklj/raw/branch/master/json/pydouyu.py"
	},
 {
      "key": "csp_biubiu_斗鱼",
      "name": "🦈斗鱼XBB",
      "type": 3,
      "api": "csp_XBiubiu",
      "searchable": 0,
      "quickSearch": 0,
      "filterable": 0,
      "ext": "https://agit.ai/zzty/jklj/raw/branch/master/json/%E6%96%97%E9%B1%BC.json"
    },
    {
      "key": "网易CC",
      "name": "🐠网易CC",
      "type": 3,
      "api": "csp_XYQBiu",
      "searchable": 0,
      "quickSearch": 0,
      "filterable": 0,
      "ext": "https://agit.ai/zzty/jklj/raw/branch/master/json/%E7%BD%91%E6%98%93CC.json"
    },
    {
      "key": "csp_xpath_酷狗MV",
      "name": "🐶酷狗MV",
      "type": 3,
      "api": "csp_XYQBiu",
      "searchable": 0,
      "quickSearch": 0,
      "filterable": 0,
      "ext": "https://agit.ai/zzty/jklj/raw/branch/master/json/%E9%85%B7%E7%8B%97MV.json"
    },
    {
      "key": "csp_xpath_kuqimv",
      "name": "🎤酷奇MV",
      "type": 3,
      "api": "csp_XYQBiu",
      "searchable": 0,
      "quickSearch": 0,
      "filterable": 0,
      "ext": "https://agit.ai/zzty/jklj/raw/branch/master/json/%E9%85%B7%E5%A5%87MV.json"
    },
    {
      "key": "csp_Alist",
      "name": "🗂Alist合集",
      "type": 3,
      "api": "csp_Alist",
      "searchable": 1,
      "quickSearch": 0,
      "filterable": 0,
      "ext": "https://agit.ai/zzty/jklj/raw/branch/master/json/Alist.json"
    },
    {
      "key": "csp_bendi",
      "name": "📂本地视频",
      "type": 3,
      "api": "csp_LocalFile",
      "searchable": 0,
      "quickSearch": 0,
      "filterable": 0
    },
    {
      "key":"csp_GitCafe",
      "name":"🔖小纸条",
      "type":3,
      "api":"csp_Gitcafe",
      "playerType":1,
      "searchable":1,
      "quickSearch":1,
      "filterable":1,
      "ext":"https://agit.ai/leevi/apps/raw/branch/main/ali.txt"
      },
    {
      "key":"Yisou",
      "name":"🎯易搜",
      "type":3,
      "api":"csp_Yisou",
      "playerType":1,
      "searchable":1,
      "quickSearch":1,
      "filterable":0,
      "ext":"https://agit.ai/leevi/apps/raw/branch/main/ali.txt"
      },
    {
      "key":"Zhaozy",
      "name":"🔍找资源",
      "type":3,
      "api":"csp_Zhaozy",
      "playerType":1,
      "searchable":1,
      "quickSearch":1,
      "filterable":0,
      "ext":"https://agit.ai/leevi/apps/raw/branch/main/ali.txt"
      },
    {
      "key":"Upyunso",
      "name":"🌤️云搜",
      "type":3,
      "api":"csp_Upyunso",
      "playerType":1,
      "searchable":1,
      "quickSearch":1,
      "filterable":0,
      "ext":"https://agit.ai/leevi/apps/raw/branch/main/ali.txt"
      },
    {
      "key":"Alips",
      "name":"📀盘搜",
      "type":3,
      "api":"csp_AliPS",
      "playerType":1,
      "searchable":1,
      "quickSearch":1,
      "filterable":0,
      "ext":"https://agit.ai/leevi/apps/raw/branch/main/ali.txt"
      },
    {
      "key":"push_agent",
      "name":"📨推送",
      "type":3,
      "api":"csp_PushAgent",
      "playerType":1,
      "searchable":0,
      "quickSearch":0,
      "filterable":0,
      "ext":"https://agit.ai/leevi/apps/raw/branch/main/ali.txt"
      },
   {
      "key": "csp_xpath_yinfans",
      "name": "💥音范丝4K",
      "type": 3,
      "api": "csp_XPath",
      "searchable": 1,
      "quickSearch": 1,
      "filterable": 1,
      "ext":"https://agit.ai/zzty/jklj/raw/branch/master/json/%E9%9F%B3%E8%8C%83%E4%B8%9D.json"
    },
    {
      "key": "bdys",
      "name": "🧲哔嘀磁力",
      "type": 3,
      "api": "csp_XPbd",
      "searchable": 1,
      "quickSearch": 1,
      "filterable": 1,
      "ext": "https://agit.ai/zzty/jklj/raw/branch/master/json/%E7%A3%81%E5%8A%9B.json"
    },
    {
      "key": "csp_biubiu_在线之家",
      "name": "🏠在线之家",
      "type": 3,
      "api": "csp_XBiubiu",
      "searchable": 1,
      "quickSearch": 1,
      "filterable": 1,
      "ext": "https://agit.ai/zzty/jklj/raw/branch/master/json/%E5%9C%A8%E7%BA%BF%E4%B9%8B%E5%AE%B6.json"
    },
    {
      "key": "csp_XBiubiu_大米星球",
      "name": "🍚大米星球",
      "type": 3,
      "api": "csp_XBiubiu",
      "searchable": 1,
      "quickSearch": 1,
      "filterable": 1,
      "ext": "https://agit.ai/zzty/jklj/raw/branch/master/json/%E5%A4%A7%E7%B1%B3%E6%98%9F%E7%90%83.json"
    },
    {
      "key": "csp_xpath_chinatv",
      "name": "🍜中国电影",
      "type": 3,
      "api": "csp_XPathFilter",
      "searchable": 1,
      "quickSearch": 1,
      "filterable": 1,
      "ext": "https://agit.ai/zzty/jklj/raw/branch/master/json/%E4%B8%AD%E5%9B%BD%E7%94%B5%E5%BD%B1.json"
    },
    {
      "key": "csp_xp_jLgyy",
      "name": "💎蓝光影院",
      "type": 3,
      "api": "csp_XBiubiu",
      "searchable": 1,
      "quickSearch": 1,
      "filterable": 1,
      "ext": "https://agit.ai/zzty/jklj/raw/branch/master/json/%E8%93%9D%E5%85%89%E5%BD%B1%E9%99%A2.json"
    },
    {
      "key": "不卡影院",
      "name": "🏅不卡影院",
      "type": 3,
      "api": "csp_XBiubiu",
      "searchable": 1,
      "quickSearch": 1,
      "filterable": 1,
      "ext": "https://agit.ai/zzty/jklj/raw/branch/master/json/%E4%B8%8D%E5%8D%A1%E5%BD%B1%E9%99%A2.json"
    },
    {
      "key": "干饭影视",
      "name": "🍚干饭影视",
      "type": 3,
      "api": "csp_XBiubiu",
      "searchable": 1,
      "quickSearch": 1,
      "filterable": 1,
      "ext": "https://agit.ai/zzty/jklj/raw/branch/master/json/%E5%B9%B2%E9%A5%AD%E5%BD%B1%E8%A7%86.json"
    },
    {
      "key": "口袋影院",
      "name": "👝口袋影院",
      "type": 3,
      "api": "csp_XBiubiu",
      "searchable": 1,
      "quickSearch": 1,
      "filterable": 0,
      "ext": "https://agit.ai/zzty/jklj/raw/branch/master/json/%E5%8F%A3%E8%A2%8B%E5%BD%B1%E9%99%A2.json"
    },
    {
      "key": "花猫影视",
      "name": "🐱花猫影视",
      "type": 3,
      "api": "csp_XBiubiu",
      "searchable": 1,
      "quickSearch": 1,
      "filterable": 0,
      "ext": "https://agit.ai/zzty/jklj/raw/branch/master/json/%E8%8A%B1%E7%8C%AB%E5%BD%B1%E8%A7%86.json"
    },
    {
      "key": "利奥影院",
      "name": "🍪利奥影院",
      "type": 3,
      "api": "csp_XPathMacFilter",
      "searchable": 1,
      "quickSearch": 1,
      "filterable": 1,
      "ext": "https://agit.ai/zzty/jklj/raw/branch/master/json/%E5%88%A9%E5%A5%A5%E5%BD%B1%E9%99%A2.json"
    },
    {
      "key": "焦炭影视",
      "name": "💣焦炭影视",
      "type": 3,
      "api": "csp_XPathFilter",
      "searchable": 1,
      "quickSearch": 1,
      "filterable": 1,
      "ext": "https://agit.ai/zzty/jklj/raw/branch/master/json/%E7%84%A6%E7%82%AD%E5%BD%B1%E8%A7%86.json"
    },
    {
      "key": "csp_biubiu_蓝莓影视",
      "name": "🧁蓝莓影视",
      "type": 3,
      "api": "csp_XBiubiu",
      "searchable": 1,
      "quickSearch": 1,
      "filterable": 1,
      "ext": "https://agit.ai/zzty/jklj/raw/branch/master/json/%E8%93%9D%E8%8E%93%E5%BD%B1%E8%A7%86.json"
    },
    {
      "key": "六度影视",
      "name": "🍨六度影视",
      "type": 3,
      "api": "csp_XBiubiu",
      "searchable": 1,
      "quickSearch": 1,
      "filterable": 0,
      "ext": "https://agit.ai/zzty/jklj/raw/branch/master/json/%E5%85%AD%E5%BA%A6%E5%BD%B1%E8%A7%86.json"
    },
    {
      "key": "csp_biubiu_dadagui",
      "name": "🐢达达龟",
      "type": 3,
      "api": "csp_XPathFilter",
      "searchable": 1,
      "quickSearch": 1,
      "filterable": 1,
      "ext": "https://agit.ai/zzty/jklj/raw/branch/master/json/%E8%BE%BE%E8%BE%BE%E9%BE%9F.json"
    },
    {
      "key": "csp_XBiubiu_饭团HD",
      "name": "🍙饭团HD",
      "type": 3,
      "api": "csp_XBiubiu",
      "searchable": 1,
      "quickSearch": 1,
      "filterable": 1,
      "ext": "https://agit.ai/zzty/jklj/raw/branch/master/json/%E9%A5%AD%E5%9B%A2HD.json"
    },
    {
      "key": "csp_XBiubiu_TVB云播",
      "name": "🌤TVB云播",
      "type": 3,
      "api": "csp_XBiubiu",
      "searchable": 1,
      "quickSearch": 1,
      "filterable": 0,
      "ext": "https://agit.ai/zzty/jklj/raw/branch/master/json/tvb%E4%BA%91%E6%92%AD.json"
    },
    {
      "key": "COKEMV",
      "name": "🥮COKEMV",
      "type": 3,
      "api": "csp_XBiubiu",
      "searchable": 1,
      "quickSearch": 1,
      "filterable": 0,
      "ext": "https://agit.ai/zzty/jklj/raw/branch/master/json/COKEMV.json"
    },
    {
      "key": "Auete影视",
      "name": "🍬Auete影视",
      "type": 3,
      "api": "csp_XBiubiu",
      "searchable": 1,
      "quickSearch": 1,
      "filterable": 0,
      "ext": "https://agit.ai/zzty/jklj/raw/branch/master/json/Auete%E5%BD%B1%E8%A7%86.json"
    },
    {
      "key": "csp_XBiubiu哔嘀影视",
      "name": "🍠哔嘀影视",
      "type": 3,
      "api": "csp_XBiubiu",
      "searchable": 1,
      "quickSearch": 1,
      "filterable": 0,
      "ext": "https://agit.ai/zzty/jklj/raw/branch/master/json/%E5%93%94%E5%98%80%E5%BD%B1%E8%A7%86.json"
    },
    {
      "key": "云播看看",
      "name": "🌨云播看看",
      "type": 3,
      "api": "csp_XPath",
      "searchable": 1,
      "quickSearch": 1,
      "filterable": 0,
      "ext": "https://agit.ai/zzty/jklj/raw/branch/master/json/%E4%BA%91%E6%92%AD%E7%9C%8B%E7%9C%8B.json"
    },
    {
      "key": "小强影迷",
      "name": "🐲小强影迷",
      "type": 3,
      "api": "csp_XBiubiu",
      "searchable": 1,
      "quickSearch": 1,
      "filterable": 0,
      "ext": "https://agit.ai/zzty/jklj/raw/branch/master/json/%E5%B0%8F%E5%BC%BA%E5%BD%B1%E8%BF%B7.json"
    },
    {
      "key": "人人影视",
      "name": "👫人人影视",
      "type": 3,
      "api": "csp_XBiubiu",
      "searchable": 1,
      "quickSearch": 1,
      "filterable": 0,
      "ext": "https://agit.ai/zzty/jklj/raw/branch/master/json/%E4%BA%BA%E4%BA%BA%E5%BD%B1%E8%A7%86.json"
    },
    {
      "key": "三九影视",
      "name": "🐐三九影视",
      "type": 3,
      "api": "csp_XBiubiu",
      "searchable": 1,
      "quickSearch": 1,
      "filterable": 0,
      "ext": "https://agit.ai/zzty/jklj/raw/branch/master/json/%E4%B8%89%E4%B9%9D%E5%BD%B1%E8%A7%86.json"
    },
    {
      "key": "csp_XBiubiu_金眼影视",
      "name": "🌟金眼影视",
      "type": 3,
      "api": "csp_XBiubiu",
      "searchable": 1,
      "quickSearch": 1,
      "filterable": 0,
      "ext": "https://agit.ai/zzty/jklj/raw/branch/master/json/%E9%87%91%E7%9C%BC%E5%BD%B1%E8%A7%86.json"
    },
    {
      "key": "csp_XBiubiu_Nike影视",
      "name": "🌹Nike影视",
      "type": 3,
      "api": "csp_XBiubiu",
      "searchable": 1,
      "quickSearch": 1,
      "filterable": 0,
      "ext": "https://agit.ai/zzty/jklj/raw/branch/master/json/Nike%E5%BD%B1%E8%A7%86.json"
    },
    {
      "key": "去看动漫",
      "name": "🎊去看动漫",
      "type": 3,
      "api": "csp_XBiubiu",
      "searchable": 1,
      "quickSearch": 1,
      "filterable": 0,
      "ext": "https://agit.ai/zzty/jklj/raw/branch/master/json/%E5%8E%BB%E7%9C%8B%E5%8A%A8%E6%BC%AB.json"
    },
    {
      "key": "动漫直链",
      "name": "🎭动漫直链",
      "type": 3,
      "api": "csp_XPath",
      "searchable": 1,
      "quickSearch": 1,
      "filterable": 0,
      "ext": "https://agit.ai/zzty/jklj/raw/branch/master/json/%E5%8A%A8%E6%BC%AB%E7%9B%B4%E9%93%BE.json"
    },
    {
      "key": "csp_biubiu_风车动漫",
      "name": "🍭风车动漫",
      "type": 3,
      "api": "csp_XBiubiu",
      "searchable": 1,
      "quickSearch": 1,
      "filterable": 0,
      "ext": "https://agit.ai/zzty/jklj/raw/branch/master/json/%E9%A3%8E%E8%BD%A6%E5%8A%A8%E6%BC%AB.json"
    },
    {
      "key": "csp_xpath___动漫巴士",
      "name": "🤖动漫巴士",
      "type": 3,
      "api": "csp_XPath",
      "searchable": 1,
      "quickSearch": 1,
      "filterable": 0,
      "ext": "https://agit.ai/zzty/jklj/raw/branch/master/json/%E5%8A%A8%E6%BC%AB%E5%B7%B4%E5%A3%AB.json"
    },
    {
      "key": "csp_biubiu_OmoFun动漫",
      "name": "🧚OF动漫",
      "type": 3,
      "api": "csp_XBiubiu",
      "searchable": 1,
      "quickSearch": 1,
      "filterable": 0,
      "ext": "https://agit.ai/zzty/jklj/raw/branch/master/json/OmoFun%E5%8A%A8%E6%BC%AB.json"
    },
    {
      "key": "9E03",
      "name": "🎈9E03",
      "type": 3,
      "api": "csp_AppYsV2",
      "searchable": 1,
      "quickSearch": 1,
      "filterable": 1,
      "ext": "https://vod.9e03.com/lvdou_api.php/v1.vod"
    },
    {
      "key": "北雁资源",
      "name": "🦆北雁资源",
      "type": 1,
      "api": "https://zy.beiyan.cc:4433/api.php/provide/vod/",
      "searchable": 1,
      "quickSearch": 1,
      "filterable": 1,
      "categories": [
        "电影",
        "国产剧",
        "港台剧",
        "日韩剧",
        "欧美剧",
        "综艺",
        "动漫"
      ]
    },
    {
      "key": "小城",
      "name": "小城影视",
      "type": 3,
      "api": "csp_AppYsV2",
      "searchable": 1,
      "quickSearch": 1,
      "filterable": 1,
      "ext": "http://bc.yybox.xyz/api.php/v1.vod"
    },
    {
      "key": "刺猬影视",
      "name": "🦔刺猬影视",
      "type": 3,
      "api": "csp_AppYsV2",
      "searchable": 1,
      "quickSearch": 1,
      "filterable": 1,
      "ext": "http://www.cccvvv.top/api.php/iptv/vod/"
    },
    {
      "key": "多多",
      "name": "🐶多多影视",
      "type": 1,
      "api": "https://www.ddzyz1.com/api.php/provide/vod/",
      "searchable": 1,
      "quickSearch": 1,
      "filterable": 1,
      "categories": [
        "国产剧",
        "港台剧",
        "日韩剧",
        "欧美剧",
        "综艺",
        "动漫",
        "动作片",
        "喜剧片",
        "爱情片",
        "科幻片",
        "恐怖片",
        "剧情片",
        "战争片"
      ]
    },
    {
      "key": "鑫总资源",
      "name": "☔鑫总资源",
      "type": 3,
      "api": "csp_AppYs",
      "searchable": 0,
      "quickSearch": 0,
      "filterable": 0,
      "ext": "http://app.mmhkj.xyz/lvdou_api.php/v1.vod"
    },
    {
      "key": "QC 影视",
      "name": "🤠QC 影视",
      "type": 3,
      "api": "csp_AppYs",
      "searchable": 0,
      "quickSearch": 0,
      "filterable": 0,
      "ext": "https://www.qcsvip.com/mogai_api.php/v1.vod"
    },
    {
      "key": "玖卿乐播",
      "name": "🧯玖卿乐播",
      "type": 3,
      "api": "csp_AppYs",
      "searchable": 0,
      "quickSearch": 0,
      "filterable": 0,
      "ext": "https://vod.nqcode.cn/api.php/v1.vod"
    },
    {
      "key": "尘云影视",
      "name": "☁尘云影视",
      "type": 3,
      "api": "csp_AppYs",
      "searchable": 0,
      "quickSearch": 0,
      "filterable": 0,
      "ext": "http://v.i7yc.cn/api.php/v1.vod"
    },
    {
      "key": "万能影院",
      "name": "💳万能影院",
      "type": 3,
      "api": "csp_AppYsV2",
      "searchable": 0,
      "quickSearch": 0,
      "filterable": 0,
      "ext": "http://app.wnvod.net/lvdou_api.php/v1.vod"
    },
    {
      "key": "多多资源",
      "name": "🍊多多资源",
      "type": 1,
      "api": "https://www.ddzyz1.com/api.php/provide/vod/",
      "searchable": 0,
      "quickSearch": 0,
      "filterable": 0
    },
    {
      "key": "多多资源2",
      "name": "🥬多多资源",
      "type": 1,
      "api": "https://a.7dyu.cn/api.php/provide/vod/",
      "searchable": 0,
      "quickSearch": 0,
      "filterable": 0
    },
    {
      "key": "每天看看",
      "name": "🍌每天看看",
      "type": 1,
      "api": "http://47.113.126.237:1234/api.php/provide/vod/",
      "searchable": 0,
      "quickSearch": 0,
      "filterable": 0
    },
    {
      "key": "木子看剧",
      "name": "🍒木子看剧",
      "type": 1,
      "api": "https://mzkj.maccms.cf/api.php/provide/vod/",
      "searchable": 0,
      "quickSearch": 0,
      "filterable": 0
    },
    {
      "key": "考拉资源",
      "name": "🍈考拉资源",
      "type": 1,
      "api": "https://ikaola.tv/api.php/provide/vod/",
      "searchable": 1,
      "quickSearch": 1,
      "filterable": 0
    },
    {
      "key": "忆梦资源",
      "name": "🥕忆梦资源",
      "type": 1,
      "api": "http://anltv.cn/api.php/provide/vod/",
      "searchable": 0,
      "quickSearch": 0,
      "filterable": 0
    },
    {
      "key": "天堂资源",
      "name": "🌶天堂资源",
      "type": 1,
      "api": "http://vipmv.cc/api.php/provide/vod/",
      "searchable": 0,
      "quickSearch": 0,
      "filterable": 0
    },
    {
      "key": "江湖官采",
      "name": "🍳江湖官采",
      "type": 1,
      "api": "http://119.29.1.173/api.php/provide/vod/",
      "searchable": 1,
      "quickSearch": 1,
      "filterable": 0
    },
    {
      "key": "土狗 360",
      "name": "🥒土狗 360",
      "type": 1,
      "api": "http://360.tgzy.cc/api.php/provide/vod/",
      "searchable": 0,
      "quickSearch": 0,
      "filterable": 0
    },
    {
      "key": "M3U8资源",
      "name": "🍇M3U8资源",
      "type": 1,
      "api": "https://www.zycaiji.net:7788/api.php/provide/vod/",
      "searchable": 1,
      "quickSearch": 1,
      "filterable": 0
    },
    {
      "key": "影图影视",
      "name": "🥪影图影视",
      "type": 1,
      "api": "https://cj.vodimg.top/api.php/provide/vod/",
      "searchable": 0,
      "quickSearch": 0,
      "filterable": 0
    },
    {
      "key": "天天影视",
      "name": "🥗天天影视",
      "type": 1,
      "api": "http://tttv.cf/api.php/provide/vod/",
      "searchable": 1,
      "quickSearch": 1,
      "filterable": 0
    },
    {
      "key": "盘看影视",
      "name": "🥑盘看影视",
      "type": 1,
      "api": "http://tvcaiji.pankk.cn/api.php/provide/vod/",
      "searchable": 1,
      "quickSearch": 1,
      "filterable": 0
    },
    {
      "key": "幻风影视",
      "name": "🥫幻风影视",
      "type": 1,
      "api": "http://vip857.top/api.php/provide/vod/",
      "searchable": 0,
      "quickSearch": 0,
      "filterable": 0
    },
    {
      "key": "小鸟动漫",
      "name": "🍚小鸟动漫",
      "type": 1,
      "api": "http://xydm.baicai.buzz/api.php/provide/vod/",
      "searchable": 0,
      "quickSearch": 0,
      "filterable": 0
    },
    {
      "key": "铭轩影视",
      "name": "🍧铭轩影视",
      "type": 1,
      "api": "http://lz0716.com/api.php/provide/vod/",
      "searchable": 0,
      "quickSearch": 0,
      "filterable": 0
    },
    {
      "key": "海玉影视",
      "name": "🍬海玉影视",
      "type": 1,
      "api": "http://tv2.hykjtv.cn/api.php/provide/vod/",
      "searchable": 0,
      "quickSearch": 0,
      "filterable": 0
    },
    {
      "key": "百淘影视",
      "name": "🍨百淘影视",
      "type": 1,
      "api": "http://ys.58g8.com/api.php/provide/vod/",
      "searchable": 0,
      "quickSearch": 0,
      "filterable": 0
    },
    {
      "key": "阿里影视",
      "name": "🥤阿里影视",
      "type": 1,
      "api": "http://aliys.cn:90/api.php/provide/vod/",
      "searchable": 0,
      "quickSearch": 0,
      "filterable": 0
    },
    {
      "key": "千寻时光",
      "name": "🍱千寻时光",
      "type": 1,
      "api": "http://wy.dqyhg.cn/api.php/provide/vod/",
      "searchable": 0,
      "quickSearch": 0,
      "filterable": 0
    },
    {
      "key": "MX 影院",
      "name": "🌭MX 影院",
      "type": 1,
      "api": "http://49.235.107.145:81/api.php/provide/vod/",
      "searchable": 0,
      "quickSearch": 0,
      "filterable": 0
    },
    {
      "key": "MBO 影视",
      "name": "🍹MBO 影视",
      "type": 0,
      "api": "https://www.mbomovie.com/api.php/provide/vod/at/xml/",
      "searchable": 0,
      "quickSearch": 0,
      "filterable": 0
    },
    {
      "key": "csp_biubiu_555电影",
      "name": "🏅555 电影",
      "type": 3,
      "api": "csp_XBiubiu",
      "searchable": 1,
      "quickSearch": 1,
      "filterable": 1,
      "ext": "https://agit.ai/zzty/jklj/raw/branch/master/json/555%E7%94%B5%E5%BD%B1.json"
    }
  ],
  "spider":"https://agit.ai/zzty/jklj/raw/branch/master/jar/aduo.jar;md5;4F2F4DD7FCCDC12F2FCA14E021BA61C3",
  "wallpaper":"http://leevi.ct8.pl/bg.php",
  "lives": [
    {
      "group": "redirect",
      "channels": [
        {
          "name": "live",
          "urls": [
            "proxy://do=live&type=txt&ext=aHR0cHM6Ly9hZ2l0LmFpL3p6dHkvamtsai9yYXcvYnJhbmNoL21hc3Rlci90eHQvbS50eHQ="
          ]
        }
      ]
    }
  ],
     "parses": [
        {
            "name": "解析聚合",
            "type": 3,
            "url": "Demo"
        },
        {
            "name": "Json并发",
            "type": 2,
            "url": "Parallel"
        },
        {
            "name": "Json轮询",
            "type": 2,
            "url": "Sequence"
        },
        {
          "name":"1号线",
          "type":1,
          "url":"http://150.158.175.250:88/parse/sign/812a0f3b8a7ae9dbf90f3d7fac9c8cbc?url=",
          "header":{"User-Agent":"Mozilla/5.0"}
          },
        {
            "name": "2号线",
            "type": 1,
            "url": "http://api.ckflv.cn/?url=",
            "ext": {
                "flag": [
                    "qq",
                    "腾讯",
                    "qiyi",
                    "爱奇艺",
                    "奇艺",
                    "youku",
                    "优酷",
                    "sohu",
                    "搜狐",
                    "letv",
                    "乐视",
                    "mgtv",
                    "芒果",
                    "CL4K",
                    "renrenmi",
                    "ltnb",
                    "bilibili",
                    "1905",
                    "xigua"
                ]
            }
        },
        {
            "name": "3号线",
            "type": 1,
            "url": "https://rx.bt5v.com/json/jsonindex.php/?url=",
            "ext": {
                "flag": [
                    "qq",
                    "腾讯",
                    "qiyi",
                    "爱奇艺",
                    "奇艺",
                    "youku",
                    "优酷",
                    "sohu",
                    "搜狐",
                    "letv",
                    "乐视",
                    "mgtv",
                    "芒果",
                    "rx",
                    "ltnb",
                    "bilibili",
                    "1905",
                    "xigua"
                ]
            }
        },
        {
            "name": "4号线",
            "type": 1,
            "url": "http://www.pandown.pro/app/tkys/tkysjx.php?url=",
            "ext": {
                "flag": [
                    "qq",
                    "腾讯",
                    "qiyi",
                    "爱奇艺",
                    "奇艺",
                    "youku",
                    "优酷",
                    "sohu",
                    "搜狐",
                    "letv",
                    "乐视",
                    "mgtv",
                    "芒果",
                    "rx",
                    "ltnb",
                    "bilibili",
                    "1905",
                    "xigua"
                ]
            }
        },
        {
            "name": "5号线",
            "type": 1,
            "url": "http://pandown.pro/app/kxjx.php?url=",
            "ext": {
                "flag": [
                    "qq",
                    "腾讯",
                    "qiyi",
                    "爱奇艺",
                    "奇艺",
                    "youku",
                    "优酷",
                    "sohu",
                    "搜狐",
                    "letv",
                    "乐视",
                    "mgtv",
                    "芒果",
                    "CL4K",
                    "renrenmi",
                    "ltnb",
                    "bilibili",
                    "1905",
                    "xigua"
                ]
            }
        },
        {
            "name": "6号线",
            "type": 1,
            "url": "http://pandown.pro/app/ysmjx.php?url=",
            "ext": {
                "flag": [
                    "qq",
                    "qiyi",
                    "mgtv",
                    "youku",
                    "letv",
                    "sohu",
                    "xigua",
                    "1905",
                    "优播线路",
                    "腾播线路"
                ],
                "header": {
                    "User-Agent": "Dart/2.14 (dart:io)"
                }
            }
        },
        {
            "name": "7号线",
            "type": 1,
            "url": "http://110.42.2.115:880/analysis/json/?uid=2100&my=cqrtwyACDGLOXY0249&mgtv=app&url=",
            "ext": {
                "flag": [
                    "qq",
                    "腾讯",
                    "qiyi",
                    "爱奇艺",
                    "奇艺",
                    "youku",
                    "优酷",
                    "sohu",
                    "搜狐",
                    "letv",
                    "乐视",
                    "mgtv",
                    "芒果",
                    "CL4K",
                    "renrenmi",
                    "ltnb",
                    "bilibili",
                    "1905",
                    "xigua"
                ]
            }
        },
        {
            "name": "8号线",
            "type": 1,
            "url": "http://newjiexi.gotka.top/keyu3.php?url=",
            "ext": {
                "flag": [
                    "qq",
                    "腾讯",
                    "qiyi",
                    "爱奇艺",
                    "奇艺",
                    "youku",
                    "优酷",
                    "mgtv",
                    "芒果",
                    "letv",
                    "乐视",
                    "pptv",
                    "PPTV",
                    "sohu",
                    "bilibili",
                    "哔哩哔哩",
                    "哔哩"
                ],
                "header": {
                    "User-Agent": "okhttp/4.1.0"
                }
            }
        }
    ],
    "flags": [
        "youku",
        "qq",
        "iqiyi",
        "qiyi",
        "letv",
        "sohu",
        "tudou",
        "pptv",
        "mgtv",
        "wasu",
        "bilibili",
        "renrenmi",
        "duoduozy",
        "xinluan",
        "ddzy",
        "tgqp",
        "tkqp",
        "XRJX"
    ],
    "ijk": [
        {
            "group": "软解码",
            "options": [
                {
                    "category": 4,
                    "name": "opensles",
                    "value": "0"
                },
                {
                    "category": 4,
                    "name": "overlay-format",
                    "value": "842225234"
                },
                {
                    "category": 4,
                    "name": "framedrop",
                    "value": "1"
                },
                {
                    "category": 4,
                    "name": "soundtouch",
                    "value": "1"
                },
                {
                    "category": 4,
                    "name": "start-on-prepared",
                    "value": "1"
                },
                {
                    "category": 1,
                    "name": "http-detect-range-support",
                    "value": "0"
                },
                {
                    "category": 1,
                    "name": "fflags",
                    "value": "fastseek"
                },
                {
                    "category": 2,
                    "name": "skip_loop_filter",
                    "value": "48"
                },
                {
                    "category": 4,
                    "name": "reconnect",
                    "value": "1"
                },
                {
                    "category": 4,
                    "name": "enable-accurate-seek",
                    "value": "0"
                },
                {
                    "category": 4,
                    "name": "mediacodec",
                    "value": "0"
                },
                {
                    "category": 4,
                    "name": "mediacodec-auto-rotate",
                    "value": "0"
                },
                {
                    "category": 4,
                    "name": "mediacodec-handle-resolution-change",
                    "value": "0"
                },
                {
                    "category": 4,
                    "name": "mediacodec-hevc",
                    "value": "0"
                },
                {
                    "category": 1,
                    "name": "dns_cache_timeout",
                    "value": "600000000"
                }
            ]
        },
        {
            "group": "硬解码",
            "options": [
                {
                    "category": 4,
                    "name": "opensles",
                    "value": "0"
                },
                {
                    "category": 4,
                    "name": "overlay-format",
                    "value": "842225234"
                },
                {
                    "category": 4,
                    "name": "framedrop",
                    "value": "1"
                },
                {
                    "category": 4,
                    "name": "soundtouch",
                    "value": "1"
                },
                {
                    "category": 4,
                    "name": "start-on-prepared",
                    "value": "1"
                },
                {
                    "category": 1,
                    "name": "http-detect-range-support",
                    "value": "0"
                },
                {
                    "category": 1,
                    "name": "fflags",
                    "value": "fastseek"
                },
                {
                    "category": 2,
                    "name": "skip_loop_filter",
                    "value": "48"
                },
                {
                    "category": 4,
                    "name": "reconnect",
                    "value": "1"
                },
                {
                    "category": 4,
                    "name": "enable-accurate-seek",
                    "value": "0"
                },
                {
                    "category": 4,
                    "name": "mediacodec",
                    "value": "1"
                },
                {
                    "category": 4,
                    "name": "mediacodec-auto-rotate",
                    "value": "1"
                },
                {
                    "category": 4,
                    "name": "mediacodec-handle-resolution-change",
                    "value": "1"
                },
                {
                    "category": 4,
                    "name": "mediacodec-hevc",
                    "value": "1"
                },
                {
                    "category": 1,
                    "name": "dns_cache_timeout",
                    "value": "600000000"
                }
            ]
        }
    ],
    "ads": [
        "mimg.0c1q0l.cn",
        "www.googletagmanager.com",
        "www.google-analytics.com",
        "mc.usihnbcq.cn",
        "mg.g1mm3d.cn",
        "mscs.svaeuzh.cn",
        "cnzz.hhttm.top",
        "tp.vinuxhome.com",
        "cnzz.mmstat.com",
        "www.baihuillq.com",
        "s23.cnzz.com",
        "z3.cnzz.com",
        "c.cnzz.com",
        "stj.v1vo.top",
        "z12.cnzz.com",
        "img.mosflower.cn",
        "tips.gamevvip.com",
        "ehwe.yhdtns.com",
        "xdn.cqqc3.com",
        "www.jixunkyy.cn",
        "sp.chemacid.cn",
        "hm.baidu.com",
        "s9.cnzz.com",
        "z6.cnzz.com",
        "um.cavuc.com",
        "mav.mavuz.com",
        "wofwk.aoidf3.com",
        "z5.cnzz.com",
        "xc.hubeijieshikj.cn",
        "tj.tianwenhu.com",
        "xg.gars57.cn",
        "k.jinxiuzhilv.com",
        "cdn.bootcss.com",
        "ppl.xunzhuo123.com",
        "xomk.jiangjunmh.top",
        "img.xunzhuo123.com",
        "z1.cnzz.com",
        "s13.cnzz.com",
        "xg.huataisangao.cn",
        "z7.cnzz.com",
        "xg.huataisangao.cn",
        "z2.cnzz.com",
        "s96.cnzz.com",
        "q11.cnzz.com",
        "thy.dacedsfa.cn",
        "xg.whsbpw.cn",
        "s19.cnzz.com",
        "z8.cnzz.com",
        "s4.cnzz.com",
        "f5w.as12df.top",
        "ae01.alicdn.com",
        "www.92424.cn",
        "k.wudejia.com",
        "vivovip.mmszxc.top",
        "qiu.xixiqiu.com",
        "cdnjs.hnfenxun.com",
        "cms.qdwght.com"
    ]
}
